Hania Vaughn

Macauly Riggs

Lisa-Marie Carver

Moesha Barber

Arda Milner

Lisa-Marie Carver

Bear Milne

Huey Gough

Derek Croft

Rikesh Webster

Lisa-Marie Carver

Willa Wilde

Moesha Barber

Gavin Wise

Ammar Emerson
